
Program received signal SIGSEGV: Segmentation fault - invalid memory reference.

Program received signal SIGSEGV: Segmentation fault - invalid memory reference.

Backtrace for this error:

Program received signal SIGSEGV: Segmentation fault - invalid memory reference.

Backtrace for this error:

Program received signal SIGSEGV: Segmentation fault - invalid memory reference.

Backtrace for this error:

Backtrace for this error:

Program received signal SIGSEGV: Segmentation fault - invalid memory reference.

Program received signal SIGSEGV: Segmentation fault - invalid memory reference.

Backtrace for this error:

Program received signal SIGSEGV: Segmentation fault - invalid memory reference.

Program received signal SIGSEGV: Segmentation fault - invalid memory reference.

Backtrace for this error:

Program received signal SIGSEGV: Segmentation fault - invalid memory reference.

Program received signal SIGSEGV: Segmentation fault - invalid memory reference.

Program received signal SIGSEGV: Segmentation fault - invalid memory reference.

Program received signal SIGSEGV: Segmentation fault - invalid memory reference.

Program received signal SIGSEGV: Segmentation fault - invalid memory reference.

Backtrace for this error:

Program received signal SIGSEGV: Segmentation fault - invalid memory reference.

Backtrace for this error:

Program received signal SIGSEGV: Segmentation fault - invalid memory reference.

Program received signal SIGSEGV: Segmentation fault - invalid memory reference.

Backtrace for this error:

Program received signal SIGSEGV: Segmentation fault - invalid memory reference.

Backtrace for this error:

Program received signal SIGSEGV: Segmentation fault - invalid memory reference.

Backtrace for this error:

Program received signal SIGSEGV: Segmentation fault - invalid memory reference.

Backtrace for this error:

Program received signal SIGSEGV: Segmentation fault - invalid memory reference.

Backtrace for this error:

Program received signal SIGSEGV: Segmentation fault - invalid memory reference.

Backtrace for this error:

Program received signal SIGSEGV: Segmentation fault - invalid memory reference.

Backtrace for this error:

Program received signal SIGSEGV: Segmentation fault - invalid memory reference.

Backtrace for this error:

Program received signal SIGSEGV: Segmentation fault - invalid memory reference.

Backtrace for this error:

Program received signal SIGSEGV: Segmentation fault - invalid memory reference.

Backtrace for this error:

Backtrace for this error:

Program received signal SIGSEGV: Segmentation fault - invalid memory reference.

Backtrace for this error:

Program received signal SIGSEGV: Segmentation fault - invalid memory reference.

Backtrace for this error:

Program received signal SIGSEGV: Segmentation fault - invalid memory reference.

Backtrace for this error:

Program received signal SIGSEGV: Segmentation fault - invalid memory reference.

Backtrace for this error:

Program received signal SIGSEGV: Segmentation fault - invalid memory reference.

Backtrace for this error:

Backtrace for this error:

Program received signal SIGSEGV: Segmentation fault - invalid memory reference.

Backtrace for this error:

Program received signal SIGSEGV: Segmentation fault - invalid memory reference.

Backtrace for this error:

Backtrace for this error:

Backtrace for this error:

Backtrace for this error:

Backtrace for this error:

Backtrace for this error:
#0  0x7f5f695e98da
#1  0x7f5f695e8ae3
#2  0x7f5f6924083f
#3  0x7f5f69365b0d
#4  0x55bd443d9560
#5  0x55bd443e5a63
#6  0x55bd443d840e
#7  0x7f5f6922d09a
#8  0x55bd443d8449
#9  0xffffffffffffffff
#0  0x7f0ae7dad8da
#0  0x7fe4bb6cf8da
#1  0x7fe4bb6ceae3
#2  0x7fe4bb32683f
#3  0x7fe4bb44bb0d
#4  0x555918f3b560
#5  0x555918f47a63
#6  0x555918f3a40e
#7  0x7fe4bb31309a
#8  0x555918f3a449
#9  0xffffffffffffffff
#0  0x7f18ebef78da
#1  0x7f18ebef6ae3
#2  0x7f18ebb4e83f
#3  0x7f18ebc73b0d
#4  0x55c5cae92560
#5  0x55c5cae9ea63
#6  0x55c5cae9140e
#7  0x7f18ebb3b09a
#8  0x55c5cae91449
#9  0xffffffffffffffff
#1  0x7f0ae7dacae3
#2  0x7f0ae7a0483f
#3  0x7f0ae7b29b0d
#4  0x55fbd6a1a560
#5  0x55fbd6a26a63
#6  0x55fbd6a1940e
#7  0x7f0ae79f109a
#8  0x55fbd6a19449
#9  0xffffffffffffffff
#0  0x7fe3f60168da
#1  0x7fe3f6015ae3
#2  0x7fe3f5c6d83f
#3  0x7fe3f5d92b0d
#4  0x555ff4f02560
#5  0x555ff4f0ea63
#6  0x555ff4f0140e
#7  0x7fe3f5c5a09a
#8  0x555ff4f01449
#9  0xffffffffffffffff
#0  0x7f8edc7b48da
#0  0x7f674b7c88da
#1  0x7f674b7c7ae3
#2  0x7f674b41f83f
#3  0x7f674b544b0d
#4  0x560618ebc560
#5  0x560618ec8a63
#6  0x560618ebb40e
#7  0x7f674b40c09a
#8  0x560618ebb449
#9  0xffffffffffffffff
#0  0x7f6d73e4b8da
#0  0x7f012f9ea8da
#1  0x7f012f9e9ae3
#2  0x7f012f64183f
#3  0x7f012f766b0d
#4  0x5566b445c560
#5  0x5566b4468a63
#6  0x5566b445b40e
#7  0x7f012f62e09a
#8  0x5566b445b449
#9  0xffffffffffffffff
#0  0x7fadcfc4a8da
#1  0x7fadcfc49ae3
#2  0x7fadcf8a183f
#3  0x7fadcf9c6b0d
#4  0x560693f92560
#5  0x560693f9ea63
#6  0x560693f9140e
#7  0x7fadcf88e09a
#8  0x560693f91449
#9  0xffffffffffffffff
#0  0x7fc7694f58da
#1  0x7fc7694f4ae3
#2  0x7fc76914c83f
#3  0x7fc769271b0d
#4  0x55f142a9c560
#5  0x55f142aa8a63
#6  0x55f142a9b40e
#7  0x7fc76913909a
#8  0x55f142a9b449
#9  0xffffffffffffffff
#1  0x7f8edc7b3ae3
#2  0x7f8edc40b83f
#3  0x7f8edc530b0d
#4  0x555cd7fdc560
#5  0x555cd7fe8a63
#6  0x555cd7fdb40e
#7  0x7f8edc3f809a
#8  0x555cd7fdb449
#9  0xffffffffffffffff
#0  0x7f28575ed8da
#1  0x7f6d73e4aae3
#2  0x7f6d73aa283f
#0  0x7f31e2fdb8da
#1  0x7f31e2fdaae3
#2  0x7f31e2c3283f
#3  0x7f31e2d57b0d
#4  0x55bf59137560
#5  0x55bf59143a63
#6  0x55bf5913640e
#7  0x7f31e2c1f09a
#8  0x55bf59136449
#9  0xffffffffffffffff
#3  0x7f6d73bc7b0d
#0  0x7fed180808da
#1  0x7fed1807fae3
#2  0x7fed17cd783f
#3  0x7fed17dfcb0d
#4  0x5561e9f88560
#5  0x5561e9f94a63
#6  0x5561e9f8740e
#7  0x7fed17cc409a
#8  0x5561e9f87449
#9  0xffffffffffffffff
#4  0x55b84123f560
#0  0x7f48508c98da
#1  0x7f48508c8ae3
#2  0x7f485052083f
#3  0x7f4850645b0d
#4  0x560af4763560
#5  0x560af476fa63
#6  0x560af476240e
#7  0x7f485050d09a
#8  0x560af4762449
#9  0xffffffffffffffff
#1  0x7f28575ecae3
#5  0x55b84124ba63
#0  0x7f900b4ed8da
#1  0x7f900b4ecae3
#2  0x7f900b14483f
#3  0x7f900b269b0d
#4  0x557f9d746560
#5  0x557f9d752a63
#6  0x557f9d74540e
#7  0x7f900b13109a
#8  0x557f9d745449
#9  0xffffffffffffffff
#2  0x7f285724483f
#6  0x55b84123e40e
#0  0x7f6bcce1e8da
#1  0x7f6bcce1dae3
#2  0x7f6bcca7583f
#3  0x7f6bccb9ab0d
#4  0x55b8fe31c560
#5  0x55b8fe328a63
#6  0x55b8fe31b40e
#7  0x7f6bcca6209a
#8  0x55b8fe31b449
#9  0xffffffffffffffff
#0  0x7f0d955828da
#1  0x7f0d95581ae3
#2  0x7f0d951d983f
#3  0x7f0d952feb0d
#4  0x56155c6f7560
#5  0x56155c703a63
#6  0x56155c6f640e
#7  0x7f0d951c609a
#8  0x56155c6f6449
#9  0xffffffffffffffff
#7  0x7f6d73a8f09a
#0  0x7f50838848da
#1  0x7f5083883ae3
#2  0x7f50834db83f
#3  0x7f5083600b0d
#4  0x561a50b49560
#5  0x561a50b55a63
#6  0x561a50b4840e
#7  0x7f50834c809a
#8  0x561a50b48449
#9  0xffffffffffffffff
#3  0x7f2857369b0d
#0  0x7ff7cd5cb8da
#4  0x555767aca560
#0  0x7f1b307728da
#1  0x7f1b30771ae3
#2  0x7f1b303c983f
#3  0x7f1b304eeb0d
#4  0x555aea195560
#5  0x555aea1a1a63
#6  0x555aea19440e
#7  0x7f1b303b609a
#8  0x555aea194449
#9  0xffffffffffffffff
#8  0x55b84123e449
#9  0xffffffffffffffff
#1  0x7ff7cd5caae3
#5  0x555767ad6a63
#0  0x7f83102588da
#2  0x7ff7cd22283f
#6  0x555767ac940e
#0  0x7f08101418da
#1  0x7f0810140ae3
#2  0x7f080fd9883f
#3  0x7f080febdb0d
#4  0x5616a92b1560
#5  0x5616a92bda63
#6  0x5616a92b040e
#7  0x7f080fd8509a
#8  0x5616a92b0449
#9  0xffffffffffffffff
#7  0x7f285723109a
#1  0x7f8310257ae3
#3  0x7ff7cd347b0d
#8  0x555767ac9449
#2  0x7f830feaf83f
#4  0x55f33dce5560
#3  0x7f830ffd4b0d
#5  0x55f33dcf1a63
#9  0xffffffffffffffff
#6  0x55f33dce440e
#4  0x562b6e7be560
#5  0x562b6e7caa63
#7  0x7ff7cd20f09a
#6  0x562b6e7bd40e
#8  0x55f33dce4449
--------------------------------------------------------------------------
Primary job  terminated normally, but 1 process returned
a non-zero exit code. Per user-direction, the job has been aborted.
--------------------------------------------------------------------------
#7  0x7f830fe9c09a
#9  0xffffffffffffffff
#8  0x562b6e7bd449
#9  0xffffffffffffffff
#0  0x7f44de6228da
#0  0x7f3eb9f6c8da
#1  0x7f3eb9f6bae3
#2  0x7f3eb9bc383f
#3  0x7f3eb9ce8b0d
#4  0x55f2173bd560
#5  0x55f2173c9a63
#6  0x55f2173bc40e
#7  0x7f3eb9bb009a
#8  0x55f2173bc449
#9  0xffffffffffffffff
#0  0x7ff05eb1d8da
#1  0x7ff05eb1cae3
#2  0x7ff05e77483f
#3  0x7ff05e899b0d
#4  0x562414053560
#5  0x56241405fa63
#6  0x56241405240e
#7  0x7ff05e76109a
#8  0x562414052449
#9  0xffffffffffffffff
#0  0x7f2fe53778da
#1  0x7f2fe5376ae3
#2  0x7f2fe4fce83f
#3  0x7f2fe50f3b0d
#4  0x55cf5b93b560
#5  0x55cf5b947a63
#6  0x55cf5b93a40e
#7  0x7f2fe4fbb09a
#8  0x55cf5b93a449
#9  0xffffffffffffffff
#0  0x7fdef5eb98da
#1  0x7fdef5eb8ae3
#2  0x7fdef5b1083f
#3  0x7fdef5c35b0d
#4  0x555b90899560
#5  0x555b908a5a63
#6  0x555b9089840e
#7  0x7fdef5afd09a
#8  0x555b90898449
#9  0xffffffffffffffff
#1  0x7f44de621ae3
#2  0x7f44de27983f
#3  0x7f44de39eb0d
#4  0x563740797560
#5  0x5637407a3a63
#6  0x56374079640e
#7  0x7f44de26609a
#8  0x563740796449
#9  0xffffffffffffffff
#0  0x7fa631a0d8da
#1  0x7fa631a0cae3
#2  0x7fa63166483f
#3  0x7fa631789b0d
#4  0x55e15da09560
#5  0x55e15da15a63
#6  0x55e15da0840e
#7  0x7fa63165109a
#8  0x55e15da08449
#9  0xffffffffffffffff
#0  0x7f6d6b44c8da
#1  0x7f6d6b44bae3
#2  0x7f6d6b0a383f
#3  0x7f6d6b1c8b0d
#4  0x558c69e38560
#5  0x558c69e44a63
#6  0x558c69e3740e
#7  0x7f6d6b09009a
#8  0x558c69e37449
#9  0xffffffffffffffff
#0  0x7f1dc6a2f8da
#1  0x7f1dc6a2eae3
#2  0x7f1dc668683f
#3  0x7f1dc67abb0d
#4  0x5651787de560
#5  0x5651787eaa63
#6  0x5651787dd40e
#7  0x7f1dc667309a
#8  0x5651787dd449
#9  0xffffffffffffffff
#0  0x7ffbf23588da
#1  0x7ffbf2357ae3
#2  0x7ffbf1faf83f
#3  0x7ffbf20d4b0d
#4  0x563dc4948560
#5  0x563dc4954a63
#6  0x563dc494740e
#7  0x7ffbf1f9c09a
#8  0x563dc4947449
#9  0xffffffffffffffff
--------------------------------------------------------------------------
mpirun noticed that process rank 13 with PID 10237 on node 10.128.15.222 exited on signal 11 (Segmentation fault).
--------------------------------------------------------------------------
