

 NAS Parallel Benchmarks 3.4 -- CG Benchmark

 Size:    9000000  (class E)
 Iterations:   100
 Number of processes:    32
 Number of nonzeroes per row:       26
 Eigenvalue shift:  1500.000
2 total processes killed (some possibly by mpirun during cleanup)
